﻿Build started 5/9/2013 7:30:49 PM.
     1>Project "G:\Razer\BetterRazerNumPad\BetterRazerNumPad\BetterRazerNumPad.vcxproj" on node 2 (build target(s)).
     1>InitializeBuildStatus:
         Creating "Win32\Release\BetterRazerNumPad.unsuccessfulbuild" because "AlwaysCreate" was specified.
       ClCompile:
         All outputs are up-to-date.
         G:\Program Files (x86)\Microsoft Visual Studio 10.0\VC\bin\CL.exe /c /I..\..\..\include /Zi /nologo /W3 /WX- /O2 /Oi /Oy- /GL /D WIN32 /D NDEBUG /D _WINDOWS /D _UNICODE /D UNICODE /D _AFXDLL /Gm- /EHsc /MD /GS /Gy /fp:precise /Zc:wchar_t /Zc:forScope /Yu"StdAfx.h" /Fp"Win32\Release\BetterRazerNumPad.pch" /Fo"Win32\Release\\" /Fd"Win32\Release\vc100.pdb" /Gd /TP /analyze- /errorReport:prompt BetterRazerNumPad.cpp BetterRazerNumPadDlg.cpp
         BetterRazerNumPad.cpp
         BetterRazerNumPadDlg.cpp
       ResourceCompile:
         All outputs are up-to-date.
       Link:
         G:\Program Files (x86)\Microsoft Visual Studio 10.0\VC\bin\link.exe /ERRORREPORT:PROMPT /OUT:"G:\Razer\BetterRazerNumPad\bin\BetterRazerNumPad.exe" /INCREMENTAL:NO /NOLOGO kernel32.lib user32.lib gdi32.lib winspool.lib comdlg32.lib advapi32.lib shell32.lib ole32.lib oleaut32.lib uuid.lib odbc32.lib odbccp32.lib RzSwitchbladeSDK2.lib /MANIFEST /ManifestFile:"Win32\Release\BetterRazerNumPad.exe.intermediate.manifest" /MANIFESTUAC:"level='asInvoker' uiAccess='false'" /DEBUG /PDB:"G:\Razer\BetterRazerNumPad\bin\BetterRazerNumPad.pdb" /SUBSYSTEM:WINDOWS /OPT:REF /OPT:ICF /LTCG /TLBID:1 /ENTRY:"wWinMainCRTStartup" /DYNAMICBASE /NXCOMPAT /IMPLIB:"G:\Razer\BetterRazerNumPad\bin\BetterRazerNumPad.lib" /MACHINE:X86 Win32\Release\BetterRazerNumPad.res
         Win32\Release\BetterRazerNumPad.obj
         Win32\Release\BetterRazerNumPadDlg.obj
         Win32\Release\stdafx.obj
         Generating code
         Finished generating code
         BetterRazerNumPad.vcxproj -> G:\Razer\BetterRazerNumPad\bin\BetterRazerNumPad.exe
       Manifest:
         C:\Program Files (x86)\Microsoft SDKs\Windows\v7.0A\bin\mt.exe /nologo /verbose /outputresource:"G:\Razer\BetterRazerNumPad\bin\BetterRazerNumPad.exe;#1" /manifest Win32\Release\BetterRazerNumPad.exe.intermediate.manifest "G:\Program Files (x86)\Microsoft Visual Studio 10.0\VC\Include\Manifest\dpiaware.manifest"
       FinalizeBuildStatus:
         Deleting file "Win32\Release\BetterRazerNumPad.unsuccessfulbuild".
         Touching "Win32\Release\BetterRazerNumPad.lastbuildstate".
     1>Done Building Project "G:\Razer\BetterRazerNumPad\BetterRazerNumPad\BetterRazerNumPad.vcxproj" (build target(s)).

Build succeeded.

Time Elapsed 00:00:06.33
