^G:\RAZER\BETTERRAZERNUMPAD\BETTERRAZERNUMPAD\WIN32\RELEASE\BETTERRAZERNUMPAD.OBJ|G:\RAZER\BETTERRAZERNUMPAD\BETTERRAZERNUMPAD\WIN32\RELEASE\BETTERRAZERNUMPAD.RES|G:\RAZER\BETTERRAZERNUMPAD\BETTERRAZERNUMPAD\WIN32\RELEASE\BETTERRAZERNUMPADDLG.OBJ|G:\RAZER\BETTERRAZERNUMPAD\BETTERRAZERNUMPAD\WIN32\RELEASE\STDAFX.OBJ
G:\RAZER\BETTERRAZERNUMPAD\BIN\BETTERRAZERNUMPAD.EXE
G:\RAZER\BETTERRAZERNUMPAD\BETTERRAZERNUMPAD\WIN32\RELEASE\BETTERRAZERNUMPAD.EXE.INTERMEDIATE.MANIFEST
G:\RAZER\BETTERRAZERNUMPAD\BIN\BETTERRAZERNUMPAD.PDB
